if [ "$distroBase" = "arch" ]; then 

elif [ "$distroBase" = "fedora" ]; then 

elif [ "$distroBase" = "opensuse" ]; then

elif [ "$distroBase" = "solus" ]; then

elif [ "$distroBase" = "ubuntu" ]; then 

else
    echo "distroBase not detected" 
fi 